Non spatial MOBSTER simulations • TEMULATOR
…
#>  -> Gillespie time: NA 
#>  -> Total reactions: 1521811667 
#> 
#> 
#> > Sequencing data:
#> 
#> 1)
#> 
#>   # Clonal mutations: 500 
#>   # Purity: 1 
#>   # Depth: 120 
#>   # Depth model: overdispersed beta binomial 
#>   # VAF cutoff: 0.05 
#> 
#> # A tibble: 961 × 5
#>      alt depth    vaf id    label
#>    <int> <int>  <dbl> <chr> <chr>
#>  1     7   112 0.0625 4bX0  2    
#>  2     6   101 0.0594 4cX0  2    
#>  3     7   106 0.0660 40X0  2    
#>  4     7   133 0.0526 40X1  2    
#>  5     4    53 0.0755 13X0  2    
#>  6    11   161 0.0683 13X1  2    
#>  7     6   115 0.0522 13X2  2    
#>  8     6   119 0.0504 13X3  2    
#>  9     6   113 0.0531 13X4  2    
#> 10     4    74 0.0541 97X0  2    
#> # … with 951 more rows
…
